id,email,old_role,old_permission,new_permission
1cPKPu2xStEWt2ZCVQ1b7E,oskar.hedberg@sydsvenskan.se,Backoffice Admin HDSydsvenskan,"[""api"",""backoffice:bo-admin"",""brandId:4NjU0sOz4sufDT4yrzngB6""]","api:user:send-activation-email,
api:user:update,api:user:find,
api:product:find,
api:entitlement:find,
api:user:set-password"
7vGcYnIJTKoAt6IVtzKhRt,analytics.dept@dn.se,API DNplus,"[""api"",""brandId:0uAK7wv28CxMk2lSBitm9Y""]","api:personlookup,
api:order:find"
5Owxo0hBmWOsiPsM71Ghac,account-app@bonnierdigital.se,Service+ Account Webapp Role,"[""api"",""brandId:*"",""subscription-systems""]","api:smspaymentreference:update,
api:ordersession:read,
api:configuration:find,
api:smspaymentreference:delete,
api:user:activeOnNextLogin,
api:subaccount:add-by-emails,
api:entitlement:import,
api:product:find,
api:creditcardreference:find,
api:smspaymentreference:update-payment-method,
api:ordersession:update,
api:subaccountrequest:update,
api:application:find,
api:entitlement:find,
api:user:set-password,
api:user:create,
api:hduser:check-password,
api:smsconfiguration:find,
api:appversion:find,
api:order:recurring-status,
api:user:activate,
api:resource:verify-entitlement-by-user-id,
api:order:update,
api:user:forgot-password,
api:offer:delete,
api:user:change-password,
api:user:change-forgotten-password,
api:hduser:find,
api:subaccount:find-by-sub-email,
api:offer:bulk-force-display,
api:user:find-ext-connected-user,
api:order:create,
api:entitlement:create-temporary,
api:brand:find,
api:subaccount:check-sub-account,
api:order:find,
api:entitlement:create-offer-entitlement,
api:klarnaconfiguration:find,
api:order:process,
api:user:find,
api:subaccountrequest:find,
api:creditcardreference:update,
api:smspaymentreference:find,
api:subscriptionsystem:subscriber-event,
api:user:update,
api:dibsconfiguration:find,
api:order:cancel,
api:user:send-activation-password,
api:offer:find,api:user:has-accepted-offer,
api:ordersession:find,
api:ordersession:create,
api:klarnareservation:create,
api:klarnaondemandconfiguration:find,
api:entitlement:subscriber-payment,
api:subscriptionsystem:subscriptions,
api:user:connect-ext-auth,
api:order:complete,
api:application:name,
api:user:create-user-with-offer,
api:hduser:set-state,
api:ordercontainer:create"
5WuhxBPHvnW7JqjSdIOdl0,signup.dn-premium@dn.se,API DNplus,"[""api"",""brandId:0uAK7wv28CxMk2lSBitm9Y""]","api:user:send-activation-email,
api:user:update,
api:entitlement:create,
api:subaccount:remove-by-emails,
api:resource:verify-entitlement,
api:subaccount:find,
api:brand:find,
api:entitlement:find,
api:subaccount:check-sub-account,
api:user:create,
api:user:find,
api:entitlement:import,
api:subaccount:add-by-emails,
api:product:find"
3wuNnCZ27PO0MkNgQ4gmQ9,webapp@trader.di.se,API Diplus,"[""api"",""brandId:5DuzcZz0j8u0zArSNzZgHO""]","api:entitlement:create-from-product,
api:entitlement:find"
6SQTvyWQCxfaXT6I7JoMIt,di,API Diplus,"[""api"",""brandId:5DuzcZz0j8u0zArSNzZgHO""]","api:offer:create-or-update,
api:user:find,
api:entitlement:import,
api:user:create"
36fyA4AgR6pcDUhKJy0P9u,kien.nguyen@niteco.se,Backoffice Super ALL Brands,"[""api"",""backoffice:bo-super"",""brandId:*"",""job-scheduling"",""content-admin"",""subscription-systems""]","api:user:find,
api:entitlement:import,
api:user:send-activation-password,
api:user:create"
1B5vo3MFGc1AyP2xZm4XbL,nitecoserviceplus@gmail.com,Backoffice Super ALL Brands,"[""api"",""backoffice:bo-super"",""brandId:*"",""job-scheduling"",""content-admin"",""subscription-systems""]","api:user:find,
api:product:version,
api:order:version,
api:entitlement:import,
api:user:send-activation-password,
api:user:version,
api:user:create,
api:entitlement:entitlement-endings,
api:configuration:version"
6xQjIn4cK5rvkLWcEkLneX,api@backoffice.se,BACKOFFICE_API_ROLE,"[""api"",""brandId:*""]","api:boaccount:generate-bo-forgot-password-email,
api:entitlement:delete,
api:entitlement:find,
api:order:find,
api:user:delete,
api:configuration:find"
4xuA48jBfAehahGQ7gjNRP,quang.ngo@niteco.se,Service+ Account Webapp Role,"[""api"",""brandId:*"",""subscription-systems""]","api:order:read,
api:order:find,
api:order:update"
41R6Aa0o0l4pDV72Dtx6fV,setsale-tm-orders@dn.se,API DNplus,"[""api"",""brandId:0uAK7wv28CxMk2lSBitm9Y""]",api:order:setsale
3DZPApXp9Lcs6KsvHRKyuy,mobilapp1.di.api@di.se,API Diplus,"[""api"",""brandId:5DuzcZz0j8u0zArSNzZgHO""]","api:user:forgot-password,
api:entitlement:find,
api:user:create"
7emM47hZGSZ4gwvQuLHaOt,crm@sydsvenskan.se,API HDSydsvenskan,"[""api"",""brandId:4NjU0sOz4sufDT4yrzngB6""]",api:entitlement:find
4ewM8cSCju7x79OclQTQhc,matrix@dn.se,"API Diplus, API DNplus","[""api"",""brandId:5DuzcZz0j8u0zArSNzZgHO"",""brandId:0uAK7wv28CxMk2lSBitm9Y""]",api:order:recurring-payment
2i89mUjkLsBg0O7BOd3soH,matrix@sydsvenskan.se,API HDSydsvenskan,"[""api"",""brandId:4NjU0sOz4sufDT4yrzngB6""]",api:order:recurring-payment
4eodRpD60zsEV7R7wJlgAg,dn-premium.web@dn.se,API DNplus,"[""api"",""brandId:0uAK7wv28CxMk2lSBitm9Y""]",api:resource:create
41QrKR4qbrNluzaWL0izXu,webapp@di.se,API Diplus,"[""api"",""brandId:5DuzcZz0j8u0zArSNzZgHO""]","api:resource:create,
api:entitlement:create-from-product,
api:entitlement:find"
6k0rLH6CmXD5h9WBTibXBX,krogguiden.di.api@di.se,API Diplus,"[""api"",""brandId:5DuzcZz0j8u0zArSNzZgHO""]","api:user:forgot-password,
api:entitlement:find"
4Qh6CYkUpKjgTgB83p3vxh,crm@dn.se,"API Diplus, API DNplus","[""api"",""brandId:5DuzcZz0j8u0zArSNzZgHO"",""brandId:0uAK7wv28CxMk2lSBitm9Y""]","api:user:forgot-password,
api:user:send-activation-email,
api:user:find,
api:user:update,
api:entitlement:import,
api:order:recurring-payment,
api:entitlement:find,
api:user:create,
api:entitlement:sync"
